1,45703125
7,78515625
8,0546875
8,15234375
8,3984375
8,56640625
8,81640625
9,62890625
9,66015625
9,73828125
9,86328125
10,26171875
10,3828125
10,84375
11,015625
11,02734375
11,0703125
11,38671875
11,52734375
11,61328125
12,75
12,88671875
12,88671875
12,95703125
13,1953125
13,33984375
13,34375
13,34375
13,63671875
13,90625
14,0234375
14,12109375
14,21484375
15,57421875
15,7578125
15,8203125
15,84375
15,90234375
16,0078125
16,0546875
16,15234375
16,23046875
16,3671875
16,3828125
16,5703125
16,63671875
16,6796875
16,78515625
16,875
16,97265625
17,06640625
17,41796875
17,5859375
17,6796875
17,77734375
17,95703125
18,0390625
18,20703125
18,30078125
18,50390625
18,64453125
18,6875
18,7578125
18,7578125
18,8671875
18,95703125
19,00390625
19,10546875
19,30859375
19,4140625
19,9453125
20
20,1328125
20,1875
20,41015625
20,41015625
20,4375
20,53515625
20,6640625
20,73046875
20,7890625
20,94140625
21,08203125
21,140625
21,3203125
21,40234375
21,46484375
21,5078125
21,58203125
21,66015625
21,93359375
21,9609375
22,6171875
22,8046875
22,8671875
23,125
23,46875
23,60546875
23,71875
23,73828125
23,73828125
23,73828125
23,81640625
23,96875
24
24,05859375
24,078125
24,13671875
24,2734375
24,328125
24,37109375
24,4296875
24,46484375
24,578125
24,765625
24,90234375
24,9765625
25,28125
25,28515625
25,421875
25,58984375
25,62109375
25,66796875
26,2265625
26,2421875
26,25390625
26,3203125
26,5078125
26,65625
26,71875
26,73828125
26,828125
26,890625
27,03515625
27,08203125
27,18359375
27,1953125
27,2578125
27,26171875
27,29296875
27,50390625
27,59765625
27,74609375
27,76953125
27,8671875
27,8984375
27,9921875
28,05859375
28,08984375
28,1328125
28,15234375
28,20703125
28,3359375
28,4140625
28,4765625
28,65234375
28,65234375
28,71875
28,78125
28,78125
28,78125
28,796875
28,88671875
28,953125
28,96875
29,30859375
29,46484375
29,50390625
29,578125
29,578125
29,62890625
29,75390625
29,84765625
29,84765625
29,87109375
29,91015625
30,0078125
30,12109375
30,12109375
30,20703125
30,2421875
30,2578125
30,40234375
30,51171875
30,55859375
30,98046875
31,1328125
31,2734375
31,2890625
31,3515625
31,3515625
31,390625
31,390625
31,390625
31,55078125
31,578125
31,73828125
31,90234375
32,11328125
32,2109375
32,2734375
32,30859375
32,44140625
32,51171875
32,74609375
32,921875
32,96875
33,09375
33,14453125
33,16015625
33,19140625
33,44140625
33,53515625
33,63671875
33,68359375
33,7265625
33,79296875
33,96875
34,01171875
34,16015625
34,28515625
34,28515625
34,296875
34,36328125
34,40625
34,44140625
34,515625
34,6328125
34,8046875
34,82421875
34,8828125
34,90234375
34,9296875
34,94921875
34,97265625
34,9921875
35,0703125
35,09375
35,109375
35,17578125
35,18359375
35,25
35,2578125
35,26171875
35,26953125
35,27734375
35,3515625
35,35546875
35,48046875
35,48046875
35,54296875
35,54296875
35,54296875
35,54296875
35,60546875
35,60546875
35,66796875
35,73046875
35,79296875
35,79296875
35,79296875
35,79296875
35,85546875
35,85546875
35,85546875
35,91796875
35,98046875
35,98046875
36,04296875
36,04296875
36,04296875
36,0546875
36,06640625
36,078125
36,15625
36,16796875
36,2421875
36,25
36,25390625
36,26171875
36,265625
36,26953125
36,33984375
36,41796875
36,48046875
36,54296875
36,54296875
36,54296875
36,54296875
36,54296875
36,60546875
36,60546875
36,66796875
36,73046875
36,79296875
36,79296875
36,79296875
36,79296875
36,79296875
36,85546875
36,85546875
36,98046875
37,04296875
37,04296875
37,04296875
37,04296875
37,04296875
37,10546875
37,10546875
37,10546875
37,23046875
37,23046875
37,29296875
37,29296875
37,29296875
37,29296875
37,35546875
37,35546875
37,35546875
37,48046875
37,48046875
37,54296875
37,54296875
37,54296875
37,54296875
37,60546875
37,60546875
37,60546875
37,73046875
37,73046875
37,79296875
37,79296875
37,79296875
37,85546875
37,85546875
37,85546875
37,91796875
37,98046875
37,98046875
38,04296875
38,04296875
38,04296875
38,04296875
38,10546875
38,10546875
38,23046875
38,23046875
38,29296875
38,29296875
38,29296875
38,29296875
38,29296875
38,35546875
38,35546875
38,41796875
38,48046875
38,48046875
38,54296875
38,54296875
38,54296875
38,54296875
38,60546875
38,60546875
38,60546875
38,66796875
38,73046875
38,73046875
38,98046875
39,04296875
39,04296875
39,04296875
39,04296875
39,04296875
39,04296875
39,10546875
39,16796875
39,23046875
39,29296875
39,29296875
39,29296875
39,29296875
39,29296875
39,35546875
39,35546875
39,41796875
39,48046875
39,54296875
39,54296875
39,54296875
39,54296875
39,54296875
39,60546875
39,60546875
39,60546875
39,79296875
39,79296875
39,79296875
39,79296875
39,85546875
39,85546875
39,85546875
39,98046875
39,98046875
40,04296875
40,04296875
40,04296875
40,04296875
40,05078125
40,0625
40,07421875
40,1484375
40,22265625
40,29296875
40,29296875
40,29296875
40,29296875
40,29296875
40,35546875
40,35546875
40,35546875
40,48046875
40,54296875
40,54296875
40,54296875
40,54296875
40,54296875
40,60546875
40,60546875
40,60546875
40,66796875
40,73046875
40,79296875
40,79296875
40,79296875
40,79296875
40,79296875
40,85546875
40,85546875
40,85546875
40,98046875
41,04296875
41,04296875
41,04296875
41,04296875
41,10546875
41,10546875
41,10546875
41,23046875
41,23046875
41,29296875
41,29296875
41,29296875
41,29296875
41,29296875
41,3125
41,32421875
41,33984375
41,3671875
41,45703125
42,3515625
46,890625
50,42578125
50,55078125
50,64453125
50,65625
50,65625
50,65625
50,65625
50,65625
50,65625
50,65625
50,65625
50,65625
50,65625
50,65625
50,65625
50,65625
50,65625
50,65625
50,65625
50,65625
50,65625
50,65625
50,65625
49,69140625
49,80078125
50,07421875
50,87109375
51,37109375
52,12109375
52,5703125
53,12109375
53,55859375
53,9375
54,4375
54,828125
55,81640625
56,25390625
56,56640625
57,00390625
57,19140625
57,69140625
58,06640625
58,38671875
58,90625
58,90625
59,29296875
59,7421875
59,7421875
60,37890625
60,62890625
60,94140625
61,25390625
61,44140625
61,9453125
62,6953125
63,1328125
63,1953125
63,484375
63,484375
64,13671875
64,44921875
64,57421875
64,57421875
65,16796875
65,32421875
66,13671875
66,44921875
66,69921875
67,04296875
67,04296875
67,63671875
67,82421875
68,32421875
68,44921875
68,44921875
68,88671875
69,26171875
69,51171875
70,13671875
70,13671875
70,69921875
70,82421875
71,01171875
71,32421875
71,69921875
72,01171875
72,51171875
72,94921875
73,13671875
73,51171875
73,890625
74,06640625
74,06640625
74,06640625
74,890625
75,328125
75,328125
75,703125
76,203125
76,203125
76,89453125
77,14453125
77,33203125
77,51953125
77,89453125
77,89453125
78,39453125
78,76953125
78,76953125
79,51953125
79,89453125
80,08203125
80,08203125
80,08203125
80,60546875
81,08203125
81,26953125
81,58203125
81,58203125
82,14453125
82,39453125
82,64453125
83,01953125
83,01953125
83,39453125
83,39453125
83,95703125
84,20703125
84,58203125
84,76953125
84,76953125
84,76953125
85,39453125
85,39453125
85,89453125
86,0625
86,26953125
86,51953125
86,51953125
87,01953125
87,20703125
87,58203125
87,83203125
87,83203125
87,83203125
88,45703125
88,69140625
88,9609375
89,3984375
89,5859375
89,8359375
90,0234375
90,5234375
90,5234375
90,8359375
91,0234375
91,46484375
91,65234375
91,83984375
93,33984375
93,65234375
93,83984375
94,02734375
94,21484375
94,65234375
94,83984375
95,41796875
95,6171875
96,01953125
96,27734375
96,65234375
96,83984375
97,21484375
97,40234375
97,58984375
97,96484375
98,39453125
98,58984375
99,27734375
99,58984375
99,96484375
100,20703125
100,52734375
100,77734375
101,21484375
101,58984375
101,58984375
101,58984375
101,58984375
102,58984375
102,58984375
102,58984375
103,40234375
103,40234375
103,77734375
103,77734375
103,77734375
104,46484375
104,46484375
104,90234375
104,90234375
105,40234375
105,65234375
105,65234375
106,11328125
106,11328125
106,52734375
106,52734375
106,83984375
107,07421875
107,33984375
107,65234375
108,08984375
108,08984375
108,33984375
108,58984375
109,15234375
109,27734375
109,58984375
110,58984375
110,83984375
111,21875
111,46875
111,90625
112,0390625
112,34375
112,71875
112,96875
113,28515625
113,41015625
113,93359375
114,34765625
114,609375
114,8046875
115,1171875
115,4296875
115,6171875
116,0546875
116,0546875
116,0546875
116,6171875
116,6171875
117,0546875
117,4296875
117,8671875
117,8671875
117,8671875
118,3046875
118,3046875
118,3046875
118,8046875
118,8046875
119,2421875
119,2421875
119,6796875
120,4921875
120,4921875
120,4921875
120,9921875
120,9921875
121,4921875
121,4921875
121,8671875
121,8671875
122,3046875
122,3046875
122,6796875
123,1796875
123,5546875
123,5546875
123,9921875
124,3671875
124,77734375
125,2421875
125,8046875
126,3671875
126,7421875
127,0546875
127,4921875
127,9296875
129,1171875
126,68359375
126,69921875
126,69921875
96,96484375
35,265625
35,265625
35,265625
35,265625
35,265625
34,80078125
34,80078125
34,26171875
32,578125
32,7109375
17,73046875
