1,44921875
1,45703125
1,45703125
1,45703125
1,45703125
1,45703125
1,45703125
1,484375
2,73828125
4,265625
6,63671875
6,84765625
7,1015625
7,16015625
7,4375
7,7265625
7,78515625
8,04296875
8,36328125
8,58984375
8,7578125
8,828125
8,9609375
8,9765625
9,1171875
9,30078125
11,2890625
11,3984375
11,6953125
12,03125
12,390625
12,43359375
12,7265625
12,9375
13,19921875
13,265625
13,33203125
13,86328125
13,98046875
14,046875
14,171875
15,25390625
15,765625
15,9921875
16,25390625
16,30859375
16,5703125
17,01953125
17,3359375
17,4609375
17,58984375
17,6875
18,203125
18,49609375
18,65625
18,7109375
18,89453125
19,0234375
19,39453125
19,62890625
19,9921875
20,14453125
20,56640625
21,03515625
21,1640625
21,40625
21,51171875
22,00390625
22,8828125
23,25390625
23,64453125
23,96484375
24,51171875
24,73828125
25,1640625
25,4609375
25,54296875
26,1015625
26,33203125
26,58203125
26,8984375
27,125
27,25390625
27,3671875
27,59765625
27,796875
27,89453125
27,94921875
28,453125
28,58203125
28,6953125
29,234375
29,73828125
29,78515625
29,9765625
30,0625
30,24609375
30,72265625
31,2109375
31,2109375
31,25
31,4296875
32,2265625
32,69140625
32,87890625
33
33,171875
33,19140625
33,40234375
33,5078125
33,7578125
34,04296875
34,16796875
34,1875
34,29296875
34,41796875
34,70703125
34,734375
34,78515625
34,81640625
34,89453125
34,91015625
34,92578125
34,93359375
35,01171875
35,02734375
35,04296875
35,05859375
35,06640625
35,26171875
35,26171875
35,26171875
35,32421875
35,32421875
35,32421875
35,32421875
35,32421875
35,44921875
35,51171875
35,51171875
35,51171875
35,57421875
35,57421875
35,57421875
35,57421875
35,69921875
35,69921875
35,76171875
35,76171875
35,82421875
35,82421875
35,82421875
35,82421875
35,82421875
35,94921875
36,01171875
36,01171875
36,01171875
36,07421875
36,07421875
36,07421875
36,07421875
36,19921875
36,19921875
36,26171875
36,26171875
36,26171875
36,32421875
36,32421875
36,32421875
36,32421875
36,44921875
36,51171875
36,51171875
36,51171875
36,57421875
36,57421875
36,57421875
36,57421875
36,57421875
36,69921875
36,76171875
36,76171875
36,76953125
36,7890625
36,80078125
36,81640625
36,94921875
36,94921875
37,01171875
37,01171875
37,01171875
37,07421875
37,07421875
37,07421875
37,07421875
37,19921875
37,203125
37,20703125
37,21484375
37,21875
37,2890625
37,296875
37,30078125
37,30859375
37,3125
37,51171875
37,51171875
37,51171875
37,57421875
37,57421875
37,57421875
37,57421875
37,57421875
37,69921875
37,76171875
37,76171875
37,82421875
37,82421875
37,82421875
37,82421875
37,82421875
37,828125
38,046875
38,0546875
38,05859375
38,06640625
38,0703125
38,19921875
38,26171875
38,26171875
38,26171875
38,32421875
38,32421875
38,32421875
38,32421875
38,44921875
38,44921875
38,51171875
38,51171875
38,51171875
38,51171875
38,57421875
38,57421875
38,57421875
38,57421875
38,69921875
38,76171875
38,76171875
38,76171875
38,76171875
38,82421875
38,82421875
38,82421875
38,82421875
38,94921875
39,01171875
39,01171875
39,01171875
39,01171875
39,07421875
39,07421875
39,07421875
39,07421875
39,19921875
39,26171875
39,26171875
39,26171875
39,32421875
39,32421875
39,32421875
39,32421875
39,32421875
39,44921875
39,51171875
39,51171875
39,51171875
39,57421875
39,57421875
39,57421875
39,57421875
39,57421875
39,69921875
39,69921875
39,76171875
39,76171875
39,82421875
39,82421875
39,82421875
39,82421875
39,82421875
39,94921875
40,01171875
40,01171875
40,01171875
40,07421875
40,07421875
40,07421875
40,19921875
40,26171875
40,26171875
40,26171875
40,26171875
40,32421875
40,32421875
40,32421875
40,32421875
40,44921875
40,51171875
40,51171875
40,51171875
40,51171875
40,51171875
40,57421875
40,57421875
40,57421875
40,69921875
40,76171875
40,76171875
40,76171875
40,76171875
40,76953125
40,78125
40,79296875
40,8046875
40,81640625
41,01171875
41,01171875
41,01171875
41,07421875
41,07421875
41,07421875
41,07421875
41,07421875
41,19921875
41,26171875
41,26171875
41,26171875
41,26171875
41,32421875
41,32421875
41,32421875
41,44921875
41,51171875
41,51171875
41,51171875
41,51171875
41,57421875
41,57421875
41,57421875
41,57421875
41,69921875
41,76171875
41,76171875
41,76171875
41,82421875
41,82421875
41,82421875
41,82421875
41,82421875
41,82421875
41,94921875
42,01171875
42,01171875
42,07421875
42,07421875
42,07421875
42,07421875
42,07421875
42,19921875
42,19921875
42,26171875
42,26171875
42,32421875
42,32421875
42,32421875
42,32421875
42,32421875
42,44921875
42,51171875
42,51171875
42,51171875
42,57421875
42,57421875
42,57421875
42,57421875
42,57421875
42,69921875
42,76171875
42,76171875
42,76171875
42,82421875
42,82421875
42,82421875
42,82421875
42,82421875
42,94921875
43,01171875
43,01171875
43,01171875
43,01171875
43,07421875
43,19921875
43,26171875
43,26171875
43,26171875
43,26171875
43,32421875
43,32421875
43,32421875
43,32421875
43,32421875
43,44921875
43,51171875
43,51171875
43,51171875
43,57421875
43,57421875
43,57421875
43,57421875
43,57421875
43,69921875
43,76171875
43,76171875
43,76171875
43,82421875
43,82421875
43,82421875
43,82421875
43,82421875
44,01171875
44,01171875
44,01171875
44,01171875
44,07421875
44,07421875
44,07421875
44,07421875
44,07421875
44,19921875
44,26171875
44,26171875
44,26171875
44,32421875
44,32421875
44,32421875
44,32421875
44,32421875
44,44921875
44,51171875
44,51171875
44,51171875
44,51171875
44,57421875
44,57421875
44,57421875
44,57421875
44,69921875
44,76171875
44,76171875
44,76171875
44,76953125
44,78125
44,796875
44,80859375
44,81640625
44,94921875
45,01171875
45,01171875
45,07421875
45,07421875
45,07421875
45,07421875
45,07421875
45,19921875
45,20703125
45,2109375
45,21875
45,22265625
45,2890625
45,296875
45,30859375
45,3125
45,4453125
45,44921875
45,51171875
45,51171875
45,51171875
45,57421875
45,57421875
45,57421875
45,57421875
45,69921875
45,76171875
45,76171875
45,76171875
45,76171875
45,82421875
45,82421875
45,82421875
45,82421875
45,890625
45,9609375
45,96484375
45,97265625
45,9765625
46,046875
46,05078125
46,05859375
46,0625
46,0703125
46,26171875
46,26171875
46,26171875
46,26171875
46,32421875
46,32421875
46,32421875
46,32421875
46,32421875
46,44921875
46,51171875
46,51171875
46,57421875
46,57421875
46,57421875
46,69921875
46,69921875
46,76171875
46,76171875
46,76171875
46,82421875
46,82421875
46,82421875
46,82421875
46,82421875
46,94921875
47,01171875
47,01171875
47,01171875
47,07421875
47,07421875
47,07421875
47,07421875
47,07421875
47,19921875
47,19921875
47,26171875
47,26171875
47,32421875
47,32421875
47,32421875
47,32421875
47,44921875
47,44921875
47,51171875
47,51171875
47,51171875
47,57421875
47,57421875
47,57421875
47,57421875
47,63671875
47,69921875
47,76171875
47,76171875
47,76171875
47,82421875
47,82421875
47,82421875
47,82421875
47,82421875
47,94921875
48,01171875
48,01171875
48,01171875
48,07421875
48,07421875
48,07421875
48,07421875
48,19921875
48,26171875
48,26171875
48,26171875
48,26171875
48,32421875
48,32421875
48,32421875
48,32421875
48,32421875
48,44921875
48,51171875
48,51171875
48,51171875
48,57421875
48,57421875
48,57421875
48,57421875
48,57421875
48,69921875
48,76171875
48,76171875
48,76171875
48,76171875
48,78515625
48,796875
48,80859375
48,82421875
48,94921875
49,01171875
49,01171875
49,01171875
49,07421875
49,07421875
49,07421875
49,07421875
49,19921875
49,26171875
49,26171875
49,26171875
49,26171875
49,32421875
49,32421875
49,32421875
49,32421875
49,44921875
49,51171875
49,51171875
49,51171875
49,57421875
49,57421875
49,57421875
49,57421875
49,57421875
49,69921875
49,76171875
49,76171875
49,76171875
49,82421875
49,82421875
49,82421875
49,82421875
49,82421875
49,94921875
50,01171875
50,01171875
50,01171875
50,07421875
50,07421875
50,07421875
50,07421875
50,07421875
50,19921875
50,26171875
50,26171875
50,26171875
50,26171875
50,32421875
50,44921875
50,51171875
50,51171875
50,51171875
50,51171875
50,57421875
50,57421875
50,57421875
50,57421875
50,57421875
50,69921875
50,69921875
50,76171875
50,76171875
50,82421875
50,82421875
50,82421875
50,82421875
50,94921875
51,01171875
51,01171875
51,01171875
51,01171875
51,07421875
51,07421875
51,07421875
51,07421875
51,19921875
51,19921875
51,26171875
51,26171875
51,26171875
51,32421875
51,32421875
51,32421875
51,32421875
51,44921875
51,51171875
51,51171875
51,51171875
51,51171875
51,57421875
51,57421875
51,57421875
51,57421875
51,69921875
51,76171875
51,76171875
51,76171875
51,76171875
51,82421875
51,82421875
51,82421875
51,94921875
51,94921875
52,01171875
52,01171875
52,01171875
52,07421875
52,07421875
52,07421875
52,07421875
52,19921875
52,19921875
52,26171875
52,26171875
52,26171875
52,26171875
52,32421875
52,32421875
52,32421875
52,32421875
52,44921875
52,44921875
52,51171875
52,51171875
52,51171875
52,51171875
52,57421875
52,57421875
52,57421875
52,57421875
52,69921875
52,76171875
52,76171875
52,76171875
52,765625
52,77734375
52,7890625
52,80078125
52,8203125
52,94921875
53,01171875
53,01171875
53,01171875
53,01171875
53,07421875
53,07421875
53,07421875
53,07421875
53,07421875
53,19921875
53,2109375
53,21484375
53,22265625
53,2890625
53,296875
53,30078125
53,30859375
53,31640625
53,51171875
53,51171875
53,51171875
53,51171875
53,57421875
53,57421875
53,57421875
53,57421875
53,69921875
53,69921875
53,76171875
53,76171875
53,76171875
53,82421875
53,82421875
53,82421875
53,82421875
53,82421875
53,890625
53,9609375
53,9765625
53,98046875
54,05078125
54,0546875
54,0625
54,06640625
54,07421875
54,19921875
54,26171875
54,26171875
54,32421875
54,32421875
54,32421875
54,32421875
54,32421875
54,44921875
54,51171875
54,51171875
54,51171875
54,51171875
54,57421875
54,57421875
54,57421875
54,57421875
54,57421875
54,69921875
54,76171875
54,76171875
54,82421875
54,82421875
54,82421875
54,82421875
54,82421875
54,82421875
55,01171875
55,01171875
55,01171875
55,07421875
55,07421875
55,07421875
55,07421875
55,19921875
55,26171875
55,26171875
55,26171875
55,32421875
55,32421875
55,32421875
55,32421875
55,44921875
55,51171875
55,51171875
55,51171875
55,51171875
55,57421875
55,57421875
55,57421875
55,57421875
55,69921875
55,76171875
55,76171875
55,76171875
55,76171875
55,82421875
55,82421875
55,82421875
55,82421875
55,94921875
56,01171875
56,01171875
56,01171875
56,01171875
56,07421875
56,07421875
56,07421875
56,07421875
56,07421875
56,26171875
56,26171875
56,26171875
56,26171875
56,32421875
56,32421875
56,44921875
56,51171875
56,51171875
56,51171875
56,57421875
56,57421875
56,57421875
56,57421875
56,57421875
56,57421875
56,76171875
56,76171875
56,76171875
56,76171875
56,76953125
56,78125
56,7890625
56,81640625
56,94921875
57,01171875
57,01171875
57,01171875
57,01171875
57,07421875
57,07421875
57,07421875
57,07421875
57,07421875
57,19921875
57,26171875
57,26171875
57,26171875
57,32421875
57,32421875
57,32421875
57,32421875
57,32421875
57,32421875
57,51171875
57,51171875
57,51171875
57,57421875
57,57421875
57,57421875
57,57421875
57,69921875
57,69921875
57,76171875
57,76171875
57,76171875
58,01171875
58,01171875
58,01171875
58,01171875
58,07421875
58,07421875
58,07421875
58,07421875
58,07421875
58,19921875
58,26171875
58,26171875
58,26171875
58,32421875
58,32421875
58,32421875
58,32421875
58,32421875
58,44921875
58,44921875
58,51171875
58,51171875
58,57421875
58,57421875
58,57421875
58,57421875
58,57421875
58,57421875
58,69921875
58,76171875
58,76171875
58,76171875
58,82421875
58,82421875
58,82421875
58,82421875
58,82421875
58,94921875
59,01171875
59,01171875
59,01171875
59,01171875
59,07421875
59,07421875
59,07421875
59,07421875
59,19921875
59,19921875
59,26171875
59,26171875
59,26171875
59,32421875
59,32421875
59,32421875
59,32421875
59,44921875
59,51171875
59,51171875
59,51171875
59,57421875
59,57421875
59,57421875
59,57421875
59,69921875
59,76171875
59,76171875
59,76171875
59,76171875
59,82421875
59,82421875
59,82421875
59,82421875
59,94921875
60,01171875
60,01171875
60,01171875
60,07421875
60,07421875
60,07421875
60,07421875
60,07421875
60,19921875
60,26171875
60,26171875
60,26171875
60,26171875
60,32421875
60,32421875
60,32421875
60,44921875
60,51171875
60,51171875
60,51171875
60,51171875
60,57421875
60,57421875
60,57421875
60,57421875
60,69921875
60,69921875
60,76171875
60,76171875
60,77734375
60,7890625
60,80078125
60,8125
60,82421875
60,94921875
61,01171875
61,01171875
61,01171875
61,01171875
61,07421875
61,07421875
61,07421875
61,19921875
61,20703125
61,2109375
61,21875
61,22265625
61,29296875
61,30078125
61,3046875
61,3125
61,31640625
61,44921875
61,51171875
61,51171875
61,51171875
61,51171875
61,57421875
61,57421875
61,57421875
61,69921875
61,76171875
61,76171875
61,76171875
61,76171875
61,82421875
61,82421875
61,82421875
61,82421875
61,89453125
61,96484375
61,96875
61,9765625
62,05078125
62,0546875
62,0625
62,07421875
62,19921875
62,26171875
62,26171875
62,26171875
62,26171875
62,32421875
62,32421875
62,32421875
62,44921875
62,44921875
62,51171875
62,51171875
62,51171875
62,51171875
62,57421875
62,57421875
62,57421875
62,69921875
62,69921875
62,76171875
62,76171875
62,76171875
62,82421875
62,82421875
62,82421875
62,82421875
62,82421875
63,01171875
63,01171875
63,01171875
63,01171875
63,07421875
63,07421875
63,07421875
63,19921875
63,19921875
63,26171875
63,26171875
63,26171875
63,26171875
63,32421875
63,32421875
63,32421875
63,44921875
63,51171875
63,51171875
63,51171875
63,57421875
63,57421875
63,57421875
63,76171875
63,76171875
63,76171875
63,76171875
63,82421875
63,82421875
63,82421875
63,82421875
64,01171875
64,01171875
64,01171875
64,01171875
64,07421875
64,07421875
64,07421875
64,07421875
64,19921875
64,19921875
64,26171875
64,26171875
64,32421875
64,32421875
64,32421875
64,44921875
64,51171875
64,51171875
64,51171875
64,51171875
64,57421875
64,57421875
64,57421875
64,57421875
64,76171875
64,76171875
64,76171875
64,76171875
64,76953125
64,78125
64,79296875
64,8125
64,82421875
64,94921875
65,01171875
65,01171875
65,01171875
65,01171875
65,07421875
65,19921875
65,19921875
65,26171875
65,26171875
65,26171875
65,26171875
65,32421875
65,32421875
65,32421875
65,44921875
65,51171875
65,51171875
65,51171875
65,57421875
65,57421875
65,57421875
65,57421875
65,69921875
65,69921875
65,76171875
65,76171875
65,76171875
65,82421875
65,82421875
65,94921875
66,01171875
66,01171875
66,01171875
66,07421875
66,07421875
66,07421875
66,07421875
66,19921875
66,26171875
66,26171875
66,26171875
66,26171875
66,32421875
66,32421875
66,32421875
66,32421875
66,44921875
66,44921875
66,51171875
66,51171875
66,51171875
66,57421875
66,57421875
66,69921875
66,76171875
66,76171875
66,76171875
66,82421875
66,82421875
66,82421875
66,82421875
66,82421875
66,94921875
67,01171875
67,01171875
67,07421875
67,07421875
67,07421875
67,07421875
67,07421875
67,19921875
67,26171875
67,26171875
67,26171875
67,32421875
67,32421875
67,32421875
67,32421875
67,51171875
67,51171875
67,51171875
67,57421875
67,57421875
67,57421875
67,57421875
67,69921875
67,76171875
67,76171875
67,76171875
67,82421875
67,82421875
67,82421875
67,82421875
67,94921875
68,01171875
68,01171875
68,01171875
68,19921875
68,26171875
68,26171875
68,26171875
68,26171875
68,32421875
68,32421875
68,44921875
68,51171875
68,51171875
68,51171875
68,57421875
68,57421875
68,57421875
68,57421875
68,57421875
68,69921875
68,76171875
68,76171875
68,76171875
68,76953125
68,78125
68,79296875
68,8046875
68,81640625
68,94921875
69,01171875
69,01171875
69,01171875
69,07421875
69,07421875
69,203125
69,20703125
69,21484375
69,21875
69,2890625
69,29296875
69,30078125
69,3046875
69,4453125
69,51171875
69,51171875
69,51171875
69,51171875
69,57421875
69,57421875
69,57421875
69,57421875
69,69921875
69,76171875
69,76171875
69,76171875
69,76171875
69,82421875
69,82421875
69,82421875
69,89453125
69,96484375
69,96875
69,9765625
70,05078125
70,0546875
70,0625
70,06640625
70,07421875
70,19921875
70,26171875
70,26171875
70,26171875
70,32421875
70,32421875
70,32421875
70,32421875
70,32421875
70,44921875
70,51171875
70,51171875
70,51171875
70,57421875
70,69921875
70,69921875
70,76171875
70,76171875
70,76171875
70,76171875
70,82421875
70,82421875
70,82421875
70,82421875
70,94921875
71,01171875
71,01171875
71,07421875
71,07421875
71,07421875
71,07421875
71,07421875
71,19921875
71,26171875
71,26171875
71,26171875
71,32421875
71,32421875
71,44921875
71,51171875
71,51171875
71,51171875
71,57421875
71,57421875
71,57421875
71,57421875
71,57421875
71,69921875
71,76171875
71,76171875
71,76171875
71,76171875
71,82421875
71,82421875
71,82421875
71,94921875
72,01171875
72,01171875
72,01171875
72,01171875
72,07421875
72,07421875
72,26171875
72,26171875
72,26171875
72,26171875
72,32421875
72,32421875
72,32421875
72,32421875
72,44921875
72,51171875
72,51171875
72,51171875
72,51171875
72,57421875
72,57421875
72,57421875
72,57421875
72,69921875
72,76171875
72,76171875
72,76171875
72,76953125
72,78515625
72,796875
73,01171875
73,01171875
73,01171875
73,01171875
73,07421875
73,07421875
73,07421875
73,07421875
73,19921875
73,26171875
73,26171875
73,26171875
73,32421875
73,32421875
73,32421875
73,32421875
73,32421875
73,44921875
73,51171875
73,51171875
73,51171875
73,51171875
73,57421875
73,69921875
73,76171875
73,76171875
73,76171875
73,76171875
73,82421875
73,82421875
73,82421875
73,82421875
73,94921875
74,01171875
74,01171875
74,01171875
74,01171875
74,07421875
74,07421875
74,07421875
74,19921875
74,26171875
74,26171875
74,26171875
74,26171875
74,32421875
74,32421875
74,44921875
74,51171875
74,51171875
74,51171875
74,51171875
74,57421875
74,57421875
74,57421875
74,57421875
74,69921875
74,69921875
74,76171875
74,76171875
74,76171875
74,82421875
74,82421875
74,82421875
74,82421875
74,82421875
74,94921875
75,01171875
75,01171875
75,07421875
75,07421875
75,07421875
75,07421875
75,07421875
75,19921875
75,26171875
75,26171875
75,26171875
75,32421875
75,32421875
75,32421875
75,32421875
75,44921875
75,51171875
75,51171875
75,51171875
75,57421875
75,57421875
75,57421875
75,57421875
75,57421875
75,69921875
75,76171875
75,82421875
75,82421875
75,82421875
75,82421875
75,82421875
75,94921875
76,01171875
76,01171875
76,01171875
76,01171875
76,07421875
76,07421875
76,07421875
76,19921875
76,26171875
76,26171875
76,26171875
76,32421875
76,32421875
76,32421875
76,32421875
76,51171875
76,51171875
76,51171875
76,57421875
76,57421875
76,57421875
76,57421875
76,69921875
76,76171875
76,76171875
76,76171875
76,76171875
76,77734375
76,7890625
76,80078125
76,8125
76,94921875
77,01171875
77,01171875
77,01171875
77,01171875
77,07421875
77,07421875
77,19921875
77,203125
77,20703125
77,21484375
77,21875
77,2890625
77,29296875
77,30078125
77,30859375
77,44921875
77,51171875
77,51171875
77,51171875
77,57421875
77,57421875
77,57421875
77,57421875
77,69921875
77,69921875
77,76171875
77,76171875
77,82421875
77,82421875
77,82421875
77,82421875
77,89453125
77,9765625
77,98046875
78,0625
78,26171875
78,26171875
78,26171875
78,32421875
78,32421875
78,32421875
78,32421875
78,32421875
78,44921875
78,51171875
78,51171875
78,51171875
78,51171875
78,57421875
78,57421875
78,57421875
78,57421875
78,69921875
78,76171875
78,76171875
78,76171875
78,82421875
78,82421875
78,94921875
79,01171875
79,01171875
79,01171875
79,01171875
79,07421875
79,07421875
79,07421875
79,07421875
79,19921875
79,26171875
79,26171875
79,26171875
79,26171875
79,32421875
79,32421875
79,32421875
79,32421875
79,44921875
79,51171875
79,57421875
79,57421875
79,57421875
79,57421875
79,57421875
79,69921875
79,76171875
79,76171875
79,76171875
79,82421875
79,82421875
79,82421875
79,82421875
79,82421875
80,01171875
80,01171875
80,01171875
80,01171875
80,07421875
80,07421875
80,19921875
80,26171875
80,26171875
80,26171875
80,26171875
80,32421875
80,32421875
80,32421875
80,32421875
80,44921875
80,51171875
80,51171875
80,51171875
80,57421875
80,57421875
80,57421875
80,57421875
80,57421875
80,69921875
80,76171875
80,76171875
80,79296875
80,8046875
80,81640625
80,94921875
80,94921875
81,01171875
81,01171875
81,01171875
81,07421875
81,07421875
81,07421875
81,07421875
81,19921875
81,26171875
81,26171875
81,26171875
81,26171875
81,32421875
81,32421875
81,32421875
81,32421875
81,51171875
81,57421875
81,57421875
81,57421875
81,57421875
81,57421875
81,69921875
81,76171875
81,76171875
81,76171875
81,82421875
81,82421875
81,82421875
81,82421875
81,82421875
81,94921875
82,01171875
82,01171875
82,01171875
82,01171875
82,07421875
82,19921875
82,19921875
82,26171875
82,26171875
82,26171875
82,26171875
82,32421875
82,32421875
82,32421875
82,44921875
82,44921875
82,51171875
82,51171875
82,51171875
82,57421875
82,57421875
82,57421875
82,57421875
82,57421875
82,69921875
82,76171875
82,82421875
82,82421875
82,82421875
82,82421875
82,82421875
82,94921875
83,01171875
83,01171875
83,01171875
83,07421875
83,07421875
83,07421875
83,07421875
83,07421875
83,19921875
83,26171875
83,26171875
83,26171875
83,32421875
83,32421875
83,44921875
83,51171875
83,51171875
83,51171875
83,51171875
83,57421875
83,57421875
83,57421875
83,57421875
83,63671875
83,69921875
83,76171875
83,76171875
83,76171875
83,82421875
83,82421875
83,82421875
83,82421875
83,82421875
83,94921875
84,07421875
84,07421875
84,07421875
84,07421875
84,07421875
84,07421875
84,19921875
84,26171875
84,26171875
84,26171875
84,32421875
84,32421875
84,32421875
84,32421875
84,44921875
84,44921875
84,51171875
84,51171875
84,51171875
84,57421875
84,76171875
84,76171875
84,76171875
84,76171875
84,765625
84,77734375
84,7890625
84,80078125
84,81640625
84,94921875
85,01171875
85,01171875
85,07421875
85,07421875
85,07421875
85,07421875
85,19921875
85,203125
85,20703125
85,21484375
85,3046875
85,3125
85,31640625
85,44921875
85,51171875
85,51171875
85,51171875
85,51171875
85,57421875
85,57421875
85,57421875
85,57421875
85,69921875
85,76171875
85,76171875
85,76171875
85,82421875
85,82421875
85,82421875
85,9609375
85,96875
85,97265625
85,98046875
86,046875
86,0546875
86,05859375
86,06640625
86,19921875
86,26171875
86,26171875
86,26171875
86,32421875
86,32421875
86,32421875
86,32421875
86,32421875
86,44921875
86,51171875
86,51171875
86,57421875
86,57421875
86,57421875
86,69921875
86,76171875
86,76171875
86,76171875
86,76171875
86,82421875
86,82421875
86,82421875
86,94921875
87,01171875
87,01171875
87,01171875
87,01171875
87,07421875
87,07421875
87,07421875
87,19921875
87,26171875
87,26171875
87,26171875
87,26171875
87,32421875
87,32421875
87,32421875
87,32421875
87,44921875
87,51171875
87,51171875
87,51171875
87,57421875
87,57421875
87,57421875
87,57421875
87,69921875
87,76171875
87,82421875
87,82421875
87,82421875
87,82421875
87,82421875
87,82421875
87,94921875
88,01171875
88,01171875
88,07421875
88,07421875
88,07421875
88,07421875
88,07421875
88,19921875
88,26171875
88,26171875
88,26171875
88,32421875
88,32421875
88,44921875
88,44921875
88,51171875
88,51171875
88,57421875
88,57421875
88,57421875
88,57421875
88,57421875
88,69921875
88,76171875
88,76171875
88,76171875
88,765625
88,77734375
88,79296875
88,8125
89,01171875
89,01171875
89,07421875
89,07421875
89,07421875
89,07421875
89,07421875
89,19921875
89,26171875
89,26171875
89,26171875
89,32421875
89,32421875
89,32421875
89,32421875
89,44921875
89,44921875
89,51171875
89,57421875
89,57421875
89,57421875
89,57421875
89,5859375
89,609375
89,625
89,66015625
89,70703125
89,71484375
89,71875
89,71875
91,4921875
91,6015625
91,6171875
96,265625
105,77734375
114,77734375
151,0234375
152,05859375
159,10546875
164,7734375
164,7734375
164,7734375
164,7734375
164,83984375
164,96484375
165,02734375
165,15234375
165,40234375
165,52734375
165,65234375
165,77734375
165,90234375
165,96484375
166,08984375
166,40234375
166,52734375
166,58984375
166,71484375
166,77734375
166,96484375
167,02734375
167,08984375
167,21484375
167,33984375
167,52734375
167,57421875
167,71484375
167,77734375
167,859375
167,86328125
167,86328125
167,86328125
167,86328125
167,86328125
167,86328125
167,86328125
167,86328125
167,86328125
167,86328125
167,86328125
167,86328125
167,86328125
167,86328125
167,86328125
168,01953125
135,81640625
135,81640625
135,81640625
135,81640625
150,515625
162,3359375
168,609375
168,8203125
169,60546875
170,27734375
170,98046875
171,6171875
173,4921875
174,30859375
175,03515625
175,8828125
176,9453125
177,76953125
178,7265625
178,79296875
179,4296875
181,6875
182,2578125
182,8828125
183,5703125
184,1328125
184,73828125
185,64453125
186,46484375
188,08984375
188,65625
189,03515625
189,66015625
190,0390625
190,6015625
191,23046875
191,60546875
192,10546875
194,48046875
194,85546875
195,04296875
195,35546875
195,79296875
196,23046875
196,48046875
196,73046875
197,671875
198,42578125
198,61328125
199,37109375
199,80859375
200,18359375
200,55859375
200,99609375
201,55859375
202,87109375
203,12109375
203,43359375
204,05859375
204,05859375
204,68359375
205,37109375
205,87109375
206,66796875
207,44921875
208,57421875
209,58984375
210,21484375
211,02734375
211,66796875
212,546875
213,296875
216,15234375
217,265625
217,890625
218,58984375
219,21875
220,59375
221,55078125
222,51171875
223,5
224,19140625
225,00390625
225,828125
227,08203125
227,76953125
228,3046875
229,28515625
230,41015625
233,375
233,88671875
234,5703125
235,3046875
236,078125
236,6484375
237,2109375
237,8984375
238,5859375
240,4765625
240,9765625
241,9765625
242,93359375
243,80859375
244,43359375
245,02734375
248,65234375
249,33984375
250,10546875
250,73046875
251,48046875
252,296875
253,125
254
255,765625
256,890625
257,4609375
258,53125
259,65625
260,421875
261,0703125
261,82421875
262,74609375
266,14453125
267,03125
267,97265625
268,59765625
269,22265625
269,92578125
270,80078125
271,55078125
272,2421875
273,9453125
275,0234375
275,7734375
276,5234375
277,01171875
277,7265625
278,5390625
281,6796875
282,4140625
283,1328125
283,88671875
284,51171875
285,265625
286,02734375
286,96484375
287,54296875
289,35546875
290,04296875
290,8671875
291,87109375
292,62109375
293,57421875
294,57421875
295,59375
298,734375
299,484375
300,30859375
300,875
301,625
302,375
303,140625
303,953125
305,97265625
306,72265625
307,47265625
308,0390625
308,80078125
309,55078125
310,375
311,06640625
314,51953125
315,3515625
316,1640625
316,8515625
317,55078125
318,2421875
318,9921875
319,5078125
321,1328125
321,8828125
322,9609375
323,7109375
324,5234375
325,40625
326,10546875
326,79296875
330,12109375
330,76171875
331,44921875
332,07421875
332,83203125
333,33984375
334,08203125
334,71484375
336,02734375
336,734375
337,359375
337,984375
338,6171875
339,29296875
339,796875
340,53515625
342,5625
343,26171875
343,890625
344,390625
344,9765625
346,328125
346,96484375
347,78125
348,34375
348,84375
348,84375
349,28125
349,734375
350,21875
351,28125
351,28125
353,16015625
353,71875
354,09375
354,65625
355,22265625
355,79296875
356,671875
356,671875
357,36328125
357,36328125
358,30078125
359,55078125
359,80078125
359,80078125
360,55078125
361,30078125
362,05078125
362,55078125
362,92578125
362,92578125
363,42578125
364,17578125
364,828125
365,42578125
366,67578125
367,23828125
367,80078125
367,80078125
368,42578125
369,05078125
369,36328125
369,92578125
370,3671875
370,875
371,37890625
371,87890625
372,45703125
372,69140625
372,75390625
373,37890625
375,19140625
375,19140625
375,94140625
376,0234375
376,50390625
377,12890625
377,12890625
378,31640625
378,75390625
379,06640625
379,50390625
379,75390625
380,00390625
380,56640625
381,19140625
382,3203125
382,3203125
383,01171875
383,01171875
383,63671875
384,578125
384,578125
385,39453125
385,83203125
386,33203125
386,83203125
387,58203125
387,58203125
388,20703125
388,83203125
390,14453125
390,14453125
390,58203125
391,14453125
391,14453125
391,76953125
391,76953125
392,45703125
392,70703125
393,26953125
394,46875
394,46875
395,03125
395,47265625
396,03515625
397,59765625
397,59765625
398,22265625
398,72265625
399,09765625
399,16015625
399,78515625
400,03515625
401,22265625
401,66015625
401,91015625
402,34765625
402,72265625
403,03515625
403,78515625
405,37109375
405,82421875
406,28515625
406,72265625
406,72265625
407,16015625
407,6015625
407,9765625
409,10546875
409,8046875
410,40234375
410,92578125
411,17578125
411,67578125
412,17578125
413,86328125
413,86328125
414,30078125
414,92578125
414,92578125
415,42578125
415,73828125
416,30078125
417,17578125
417,76953125
418,12109375
418,43359375
418,62109375
419,05859375
419,6875
420,875
420,875
421,50390625
421,50390625
422,12890625
422,12890625
422,69140625
423,06640625
424,56640625
425,19140625
425,62890625
426,08984375
426,19140625
426,75390625
428,1328125
428,50390625
429,00390625
429,00390625
429,69140625
429,69140625
430,25390625
430,69140625
431,6328125
432,19921875
432,64453125
433,26953125
433,33203125
433,89453125
433,89453125
435,45703125
435,83203125
436,33203125
436,33203125
436,95703125
436,95703125
437,64453125
437,64453125
438,89453125
439,45703125
439,95703125
440,39453125
440,8359375
440,8359375
442,5234375
443,16015625
443,46484375
443,78125
444,09375
444,34375
444,96875
444,96875
446,03515625
446,28515625
446,9140625
447,3515625
447,9140625
448,2265625
448,2265625
449,7890625
450,36328125
450,9140625
451,4140625
451,4140625
451,9140625
452,390625
452,7890625
453,6015625
453,984375
454,7265625
455,1015625
455,6015625
456,0390625
457,4140625
457,7890625
458,234375
458,61328125
459,0546875
459,3671875
459,8046875
460,1796875
461,2421875
461,7421875
462,3046875
462,8046875
463,3046875
463,8671875
464,2421875
466,1328125
466,4453125
466,4453125
467,1953125
467,1953125
467,8828125
467,8828125
468,6328125
469,0703125
469,7578125
470,3828125
470,3828125
471,0703125
471,5078125
472,9453125
473,3984375
473,5
474,1328125
474,4453125
474,4453125
475,0703125
475,3203125
476,1953125
476,5703125
476,96484375
477,5703125
478,0078125
478,0078125
479,1953125
479,82421875
480,140625
480,69921875
480,69921875
481,203125
481,64453125
482,14453125
483,1484375
483,5859375
484,00390625
484,7734375
485,3125
485,8359375
487,1484375
487,6484375
488,1484375
488,47265625
489,0703125
489,4453125
489,4453125
489,8828125
491,14453125
491,65234375
492,15625
492,66015625
492,91015625
492,91015625
494,2265625
494,7265625
494,7265625
495,4140625
495,78125
496,05078125
496,72265625
496,72265625
497,7890625
498,6015625
499,1015625
499,59765625
500,1640625
500,6640625
501,48046875
502,16796875
502,796875
502,796875
503,4921875
503,4921875
504,11328125
504,61328125
504,61328125
505,8671875
506,1171875
506,8046875
507,23828125
507,6171875
508,8046875
509,2421875
509,4921875
510,1796875
510,5546875
510,9921875
511,7421875
512,3046875
512,6171875
512,9921875
513,1171875
513,43359375
514,18359375
514,18359375
515,75
515,75
516,56640625
516,56640625
517,25390625
517,25390625
517,94921875
518,1953125
519,57421875
519,88671875
520,38671875
520,76171875
521,44921875
522,76171875
522,76171875
523,390625
523,703125
523,890625
524,578125
525,20703125
525,39453125
525,83203125
526,29296875
526,9609375
526,9609375
527,58984375
528,02734375
529,77734375
529,90234375
530,46484375
530,46484375
530,90234375
531,40234375
531,40234375
531,96484375
532,46484375
533,15234375
533,50390625
534,02734375
534,46484375
535,58984375
535,96484375
536,27734375
536,71484375
537,08984375
537,77734375
538,27734375
538,65234375
538,96484375
539,52734375
539,96875
540,8359375
541,29296875
541,79296875
543,04296875
543,54296875
544,10546875
544,60546875
545,16796875
545,73046875
546,29296875
546,79296875
547,29296875
547,91796875
548,41796875
548,41796875
549,10546875
550,609375
551,109375
551,4375
552,1796875
552,51953125
552,87109375
553,30859375
553,30859375
553,99609375
554,43359375
554,43359375
555,68359375
555,68359375
556,43359375
557,49609375
557,99609375
558,68359375
559,18359375
559,74609375
560,25
560,67578125
561,0703125
561,63671875
562,32421875
562,32421875
563,07421875
564,32421875
564,94921875
564,94921875
565,57421875
565,57421875
566,32421875
567,01171875
567,51171875
567,88671875
568,32421875
568,32421875
569,01171875
570,01171875
570,01171875
571,32421875
571,88671875
571,88671875
572,51171875
572,51171875
572,94921875
573,63671875
574,19921875
575,40234375
575,65234375
576,08984375
576,83984375
576,83984375
578,15234375
578,71484375
578,71484375
579,27734375
579,90234375
580,52734375
580,77734375
581,15234375
581,58984375
582,08984375
582,52734375
582,96484375
583,58984375
584,58984375
585,33984375
585,83984375
585,91015625
586,453125
586,96484375
586,96484375
587,53125
588,66796875
589,171875
590,046875
590,296875
590,921875
591,421875
592,109375
592,859375
593,171875
593,171875
593,609375
594,171875
594,171875
594,859375
594,859375
595,546875
595,921875
596,546875
597,546875
598,05078125
598,3046875
598,8046875
599,18359375
600,0625
600,25
600,9375
601,3359375
601,5625
602,125
602,3125
602,625
604,0625
604,5
604,91796875
605,25
605,875
605,875
606,5625
606,5625
607,125
608,45703125
609,0625
609,6328125
610,13671875
611,328125
611,328125
611,890625
612,453125
612,453125
613,640625
613,640625
614,140625
614,640625
614,640625
615,203125
615,890625
616,7890625
617,328125
617,828125
618,265625
618,765625
618,765625
619,265625
619,765625
620,20703125
620,70703125
620,70703125
621,7734375
622,33984375
624,09375
624,53125
624,8984375
625,34375
625,90625
625,90625
626,59375
626,78125
627,40625
627,40625
628,15625
628,15625
629,71875
629,71875
630,53125
630,53125
630,53125
631,34765625
631,34765625
631,34765625
632,47265625
633,421875
633,859375
633,859375
634,421875
635,296875
635,734375
636,171875
636,546875
636,671875
637,609375
638,109375
638,109375
638,859375
639,109375
639,734375
640,109375
641,359375
641,671875
642,546875
643,109375
643,484375
643,86328125
644,43359375
644,875
645,375
645,875
646,125
646,625
647,32421875
648,875
649,1875
649,1875
649,6328125
649,91015625
649,91015625
650,75
651,375
652,125
652,625
653
653,375
654,1875
654,6953125
655,0625
655,50390625
655,94140625
656,31640625
656,31640625
656,7578125
657,6328125
658,19921875
658,76953125
658,89453125
659,70703125
660,70703125
660,95703125
661,64453125
662,08203125
662,51953125
663,08203125
663,51953125
664,08203125
664,64453125
665,20703125
665,45703125
666,3671875
667,83984375
668,28125
668,28125
668,71875
669,41015625
669,91015625
670,28515625
670,66015625
671,16015625
671,16015625
671,89453125
672,16015625
673,28515625
673,66015625
674,16015625
674,16015625
675,22265625
675,53515625
676,16015625
676,28515625
676,72265625
677,11328125
677,53515625
678,28515625
679,78515625
680,34765625
680,53515625
681,09765625
681,5703125
681,8515625
682,73046875
683,10546875
683,546875
683,984375
684,31640625
684,73828125
686,86328125
687,36328125
687,86328125
688,11328125
688,55078125
688,96875
689,67578125
690,30078125
690,80078125
691,42578125
691,42578125
691,98828125
693,6171875
693,87109375
694,37890625
694,77734375
695,06640625
695,44140625
695,44140625
695,94140625
696,56640625
696,56640625
697,12890625
697,62890625
699,53125
699,87890625
700,31640625
700,81640625
701,44140625
701,94140625
702,12890625
702,37890625
702,94140625
703,44140625
703,44140625
704,56640625
705,81640625
706,25390625
706,69140625
707,31640625
707,81640625
707,81640625
708,31640625
709,06640625
709,37890625
709,9140625
710,31640625
710,62890625
711,81640625
712,06640625
712,69140625
713,12890625
713,51171875
713,87890625
714,37890625
714,56640625
714,94140625
715,37890625
716,00390625
683,73828125
684,51953125
684,51953125
684,51953125
684,51953125
684,5234375
684,5234375
684,5234375
684,5234375
684,5234375
684,5234375
684,5234375
684,5234375
684,5234375
684,5234375
684,5234375
663,03515625
575,7265625
537,7265625
468,60546875
436,60546875
305,51953125
269,51953125
223,51953125
195,51953125
35,1953125
35,1953125
35,1953125
35,1953125
34,69140625
34,69140625
34,16015625
32,80078125
25,4140625
